IMDB- Data Analysis
…
Much better.

We can see there are a total of 12 genres in the data. But some of the movies contain more than one genre:

clean_data %>%
  group_by(Genre) %>%
  summarise()

## # A tibble: 184 x 1
##    Genre                     
##    <chr>                     
##  1 Action, Adventure         
##  2 Action, Adventure, Comedy 
##  3 Action, Adventure, Drama  
##  4 Action, Adventure, Family 
##  5 Action, Adventure, Fantasy
##  6 Action, Adventure, History
##  7 Action, Adventure, Horror 
##  8 Action, Adventure, Mystery
##  9 Action, Adventure, Romance
## 10 Action, Adventure, Sci-Fi 
## # ... with 174 more rows
…
